017082112774,JK LNK BEEF TERI,5.99,g
018200530470,BUD LT 12 CAN,11.99,o
028400157827,CHEETOS CHED JAL,3.99,g
028400589864,CHEETOS CRUNCHY,3.99,g
080660956756,CORONA LT 12 BTL,12.99,o
305730133203,ADVIL IBU 20CT,7.99,n
051000199447,CAMPBELL GO COCO,4.69,g
051000058874,CAMPBELL HLTH TOM,2.49,g
051000195654,CAMPBELL HOME SW,3.99,g
305732450421,NEXIUM 24H ACID,8.99,nd
305730184328,ADVIL COLD SINUS,6.99,nd
305730179201,ADVIL JR IBUPROF,4.99,nd
